{"event_id":"2e8f94bdb1e94cc1844dc6b7eccdd65d","dsn":"https://glet_349bf2b711ac478fd6d16d340a5f133e@staging.observe.gitlab.com:443/errortracking/api/v1/projects/7831305","sdk":{"name":"sentry.ruby","version":"5.4.1"},"sent_at":"2022-07-28T09:54:44Z"}
{"type":"event","content_type":"application/json"}
{"event_id":"2e8f94bdb1e94cc1844dc6b7eccdd65d","level":"error","timestamp":"2022-07-28T09:54:44Z","environment":"development","server_name":"64e4137607ff","modules":{"error_highlight":"0.3.0","did_you_mean":"1.6.1","concurrent-ruby":"1.1.10","sentry-ruby":"5.4.1","english":"0.7.1","forwardable":"1.3.2","date":"3.2.2","time":"0.2.0","bigdecimal":"3.1.1","etc":"1.3.0","timeout":"0.2.0","logger":"1.5.0","uri":"0.11.0","io-wait":"0.2.1","securerandom":"0.1.1","set":"1.0.2","ipaddr":"1.2.4","json":"2.6.1","ostruct":"0.5.2","base64":"0.1.1","net-protocol":"0.1.2","net-http":"0.2.0","zlib":"2.1.1","abbrev":"0.1.0","benchmark":"0.2.0","bundler":"2.2.18","cgi":"0.3.1","csv":"3.2.2","delegate":"0.2.0","digest":"3.1.0","drb":"2.1.0","erb":"2.2.3","fcntl":"1.0.1","fiddle":"1.1.0","fileutils":"1.6.0","find":"0.1.1","getoptlong":"0.1.1","io-console":"0.5.11","io-nonblock":"0.1.0","irb":"1.4.1","mutex_m":"0.1.1","nkf":"0.1.1","observer":"0.1.1","open-uri":"0.2.0","open3":"0.1.1","openssl":"3.0.0","optparse":"0.2.0","pathname":"0.2.0","pp":"0.3.0","prettyprint":"0.1.1","pstore":"0.1.1","psych":"4.0.3","racc":"1.6.0","rdoc":"6.4.0","readline":"0.0.3","readline-ext":"0.1.4","reline":"0.3.0","resolv":"0.2.1","resolv-replace":"0.1.0","rinda":"0.1.1","ruby2_keywords":"0.0.5","shellwords":"0.1.0","singleton":"0.1.1","stringio":"3.0.1","strscan":"3.0.1","syslog":"0.1.0","tempfile":"0.1.2","tmpdir":"0.1.2","tsort":"0.1.0","un":"0.2.0","weakref":"0.1.1","yaml":"0.2.0"},"message":"OMG - a test message","user":{},"tags":{},"contexts":{"os":{"name":"Linux","version":"#1 SMP Debian 4.19.208-1 (2021-09-29)","build":"4.19.0-18-cloud-amd64","kernel_version":"#1 SMP Debian 4.19.208-1 (2021-09-29)"},"runtime":{"name":"ruby","version":"ruby 3.1.2p20 (2022-04-12 revision 4491bb740a) [x86_64-linux-musl]"}},"extra":{},"fingerprint":[],"breadcrumbs":{"values":[]},"platform":"ruby","sdk":{"name":"sentry.ruby","version":"5.4.1"},"type":"event","threads":{"values":[{"id":80,"name":null,"crashed":false,"current":true,"stacktrace":{"frames":[{"project_root":"/usr/app","abs_path":"app.rb","function":"<main>","lineno":22,"in_app":true,"filename":"app.rb","pre_context":["end\n","\n","\n"],"context_line":"Sentry.capture_message(\"OMG - a test message\")\n","post_context":["\n","err\n",null]},{"project_root":"/usr/app","abs_path":"/usr/lib/ruby/gems/3.1.0/gems/sentry-ruby-5.4.1/lib/sentry-ruby.rb","function":"capture_message","lineno":409,"in_app":false,"filename":"sentry-ruby.rb","pre_context":["    # @return [Event, nil]\n","    def capture_message(message, **options, &block)\n","      return unless initialized?\n"],"context_line":"      get_current_hub.capture_message(message, **options, &block)\n","post_context":["    end\n","\n","    # Takes an instance of Sentry::Event and dispatches it to the currently active hub.\n"]},{"project_root":"/usr/app","abs_path":"/usr/lib/ruby/gems/3.1.0/gems/sentry-ruby-5.4.1/lib/sentry/hub.rb","function":"capture_message","lineno":124,"in_app":false,"filename":"sentry/hub.rb","pre_context":["      options[:hint] ||= {}\n","      options[:hint][:message] = message\n","      backtrace = options.delete(:backtrace)\n"],"context_line":"      event = current_client.event_from_message(message, options[:hint], backtrace: backtrace)\n","post_context":["\n","      return unless event\n","\n"]}]}}]}}
