module gitlab.com/gitlab-org/opstrace/opstrace/scheduler

go 1.20

replace gitlab.com/gitlab-org/opstrace/opstrace/go => ../go

replace gitlab.com/gitlab-org/opstrace/opstrace/tenant-operator => ../tenant-operator

replace gitlab.com/gitlab-org/opstrace/opstrace/clickhouse-operator => ../clickhouse-operator

// Temporary workaround, until https://github.com/kubernetes-sigs/kustomize/pull/5055
// gets merged and new release is made
replace (
	sigs.k8s.io/kustomize/api => gitlab.com/gitlab-org/opstrace/kustomize/api v0.0.0-20230220081755-dfeb26030da9
	sigs.k8s.io/kustomize/kyaml => gitlab.com/gitlab-org/opstrace/kustomize/kyaml v0.0.0-20230405090733-1dc2c1514bae
)

require (
	github.com/cert-manager/cert-manager v1.8.0
	github.com/fluxcd/kustomize-controller/api v0.32.0
	github.com/fluxcd/pkg/runtime v0.29.0
	github.com/fluxcd/pkg/ssa v0.22.0
	github.com/go-logr/logr v1.2.4
	github.com/jackc/pgx/v5 v5.3.1
	github.com/prometheus-operator/prometheus-operator/pkg/apis/monitoring v0.64.1
	github.com/spotahome/redis-operator v1.2.3
	github.com/stretchr/testify v1.8.4
	gitlab.com/gitlab-org/opstrace/opstrace/clickhouse-operator v0.0.0-00010101000000-000000000000
	gitlab.com/gitlab-org/opstrace/opstrace/go v0.0.0-00010101000000-000000000000
	gitlab.com/gitlab-org/opstrace/opstrace/tenant-operator v0.0.0-00010101000000-000000000000
	go.uber.org/automaxprocs v1.5.2
	go.uber.org/zap v1.24.0
	k8s.io/api v0.26.1
	k8s.io/apimachinery v0.26.1
	k8s.io/client-go v0.26.1
	k8s.io/utils v0.0.0-20230406110748-d93618cff8a2
	sigs.k8s.io/cli-utils v0.34.0
	sigs.k8s.io/controller-runtime v0.14.6
	sigs.k8s.io/kustomize/api v0.12.1
	sigs.k8s.io/kustomize/kyaml v0.13.9
)

require (
	github.com/Azure/go-ansiterm v0.0.0-20230124172434-306776ec8161 // indirect
	github.com/ClickHouse/ch-go v0.55.0 // indirect
	github.com/ClickHouse/clickhouse-go/v2 v2.9.1 // indirect
	github.com/MakeNowJust/heredoc v1.0.0 // indirect
	github.com/andybalholm/brotli v1.0.5 // indirect
	github.com/beorn7/perks v1.0.1 // indirect
	github.com/blang/semver v3.5.1+incompatible // indirect
	github.com/cespare/xxhash/v2 v2.2.0 // indirect
	github.com/chai2010/gettext-go v1.0.2 // indirect
	github.com/davecgh/go-spew v1.1.1 // indirect
	github.com/emicklei/go-restful/v3 v3.10.0 // indirect
	github.com/evanphx/json-patch v5.6.0+incompatible // indirect
	github.com/evanphx/json-patch/v5 v5.6.0 // indirect
	github.com/exponent-io/jsonpath v0.0.0-20210407135951-1de76d718b3f // indirect
	github.com/fatih/camelcase v1.0.0 // indirect
	github.com/fluxcd/pkg/apis/kustomize v0.7.0 // indirect
	github.com/fluxcd/pkg/apis/meta v0.19.0 // indirect
	github.com/fsnotify/fsnotify v1.6.0 // indirect
	github.com/go-errors/errors v1.4.2 // indirect
	github.com/go-faster/city v1.0.1 // indirect
	github.com/go-faster/errors v0.6.1 // indirect
	github.com/go-logr/zapr v1.2.3 // indirect
	github.com/go-openapi/jsonpointer v0.19.6 // indirect
	github.com/go-openapi/jsonreference v0.20.1 // indirect
	github.com/go-openapi/swag v0.22.3 // indirect
	github.com/gogo/protobuf v1.3.2 // indirect
	github.com/golang/groupcache v0.0.0-20210331224755-41bb18bfe9da // indirect
	github.com/golang/protobuf v1.5.3 // indirect
	github.com/google/btree v1.1.2 // indirect
	github.com/google/gnostic v0.6.9 // indirect
	github.com/google/go-cmp v0.5.9 // indirect
	github.com/google/go-querystring v1.1.0 // indirect
	github.com/google/gofuzz v1.2.0 // indirect
	github.com/google/shlex v0.0.0-20191202100458-e7afc7fbc510 // indirect
	github.com/google/uuid v1.3.0 // indirect
	github.com/gregjones/httpcache v0.0.0-20190611155906-901d90724c79 // indirect
	github.com/hashicorp/go-cleanhttp v0.5.2 // indirect
	github.com/hashicorp/go-retryablehttp v0.7.2 // indirect
	github.com/hashicorp/hcl v1.0.0 // indirect
	github.com/imdario/mergo v0.3.15 // indirect
	github.com/inconshreveable/mousetrap v1.1.0 // indirect
	github.com/jackc/pgpassfile v1.0.0 // indirect
	github.com/jackc/pgservicefile v0.0.0-20221227161230-091c0ba34f0a // indirect
	github.com/jaegertracing/jaeger-operator v1.39.0 // indirect
	github.com/josharian/intern v1.0.0 // indirect
	github.com/json-iterator/go v1.1.12 // indirect
	github.com/klauspost/compress v1.16.6 // indirect
	github.com/liggitt/tabwriter v0.0.0-20181228230101-89fcab3d43de // indirect
	github.com/magiconair/properties v1.8.7 // indirect
	github.com/mailru/easyjson v0.7.7 // indirect
	github.com/matttproud/golang_protobuf_extensions v1.0.4 // indirect
	github.com/mitchellh/go-wordwrap v1.0.1 // indirect
	github.com/mitchellh/mapstructure v1.5.1-0.20220423185008-bf980b35cac4 // indirect
	github.com/moby/spdystream v0.2.0 // indirect
	github.com/moby/term v0.5.0 // indirect
	github.com/modern-go/concurrent v0.0.0-20180306012644-bacd9c7ef1dd // indirect
	github.com/modern-go/reflect2 v1.0.2 // indirect
	github.com/monochromegane/go-gitignore v0.0.0-20200626010858-205db1a8cc00 // indirect
	github.com/munnerz/goautoneg v0.0.0-20191010083416-a7dc8b61c822 // indirect
	github.com/onsi/gomega v1.27.4 // indirect
	github.com/openshift/elasticsearch-operator v0.0.0-20220708171007-a87102296ded // indirect
	github.com/paulmach/orb v0.9.2 // indirect
	github.com/pelletier/go-toml v1.9.5 // indirect
	github.com/pelletier/go-toml/v2 v2.0.5 // indirect
	github.com/peterbourgon/diskv v2.0.1+incompatible // indirect
	github.com/pierrec/lz4/v4 v4.1.17 // indirect
	github.com/pkg/errors v0.9.1 // indirect
	github.com/pmezard/go-difflib v1.0.0 // indirect
	github.com/prometheus/client_golang v1.16.0 // indirect
	github.com/prometheus/client_model v0.4.0 // indirect
	github.com/prometheus/common v0.44.0 // indirect
	github.com/prometheus/procfs v0.10.1 // indirect
	github.com/rjeczalik/notify v0.9.3 // indirect
	github.com/russross/blackfriday/v2 v2.1.0 // indirect
	github.com/segmentio/asm v1.2.0 // indirect
	github.com/shopspring/decimal v1.3.1 // indirect
	github.com/sirupsen/logrus v1.9.0 // indirect
	github.com/spf13/afero v1.9.2 // indirect
	github.com/spf13/cast v1.5.0 // indirect
	github.com/spf13/cobra v1.7.0 // indirect
	github.com/spf13/jwalterweatherman v1.1.0 // indirect
	github.com/spf13/pflag v1.0.5 // indirect
	github.com/spf13/viper v1.13.0 // indirect
	github.com/subosito/gotenv v1.4.1 // indirect
	github.com/xanzy/go-gitlab v0.76.0 // indirect
	github.com/xlab/treeprint v1.1.0 // indirect
	gitlab.com/gitlab-org/opstrace/goose/v3 v3.11.3 // indirect
	go.opentelemetry.io/otel v1.16.0 // indirect
	go.opentelemetry.io/otel/trace v1.16.0 // indirect
	go.starlark.net v0.0.0-20221028183056-acb66ad56dd2 // indirect
	go.uber.org/atomic v1.11.0 // indirect
	go.uber.org/multierr v1.11.0 // indirect
	golang.org/x/crypto v0.10.0 // indirect
	golang.org/x/net v0.11.0 // indirect
	golang.org/x/oauth2 v0.8.0 // indirect
	golang.org/x/sys v0.10.0 // indirect
	golang.org/x/term v0.9.0 // indirect
	golang.org/x/text v0.11.0 // indirect
	golang.org/x/time v0.3.0 // indirect
	gomodules.xyz/jsonpatch/v2 v2.2.0 // indirect
	google.golang.org/appengine v1.6.7 // indirect
	google.golang.org/protobuf v1.31.0 // indirect
	gopkg.in/inf.v0 v0.9.1 // indirect
	gopkg.in/ini.v1 v1.67.0 // indirect
	gopkg.in/yaml.v2 v2.4.0 // indirect
	gopkg.in/yaml.v3 v3.0.1 // indirect
	k8s.io/apiextensions-apiserver v0.26.1 // indirect
	k8s.io/cli-runtime v0.26.1 // indirect
	k8s.io/component-base v0.26.1 // indirect
	k8s.io/klog/v2 v2.100.1 // indirect
	k8s.io/kube-openapi v0.0.0-20230308215209-15aac26d736a // indirect
	k8s.io/kubectl v0.26.1 // indirect
	sigs.k8s.io/gateway-api v0.4.1 // indirect
	sigs.k8s.io/json v0.0.0-20221116044647-bc3834ca7abd // indirect
	sigs.k8s.io/structured-merge-diff/v4 v4.2.3 // indirect
	sigs.k8s.io/yaml v1.3.0 // indirect
)
